<?xml version='1.0' encoding='UTF-8'?>
<glyph name="uniE00A" format="2">
  <advance width="1024"/>
  <unicode hex="E00A"/>
  <outline>
    <component base="boxHeavyVertical" xOffset="-256"/>
  </outline>
  <lib>
    <dict>
      <key>public.markColor</key>
      <string>0,0.67,0.91,1</string>
    </dict>
  </lib>
</glyph>
