<?xml version='1.0' encoding='UTF-8'?>
<glyph name="uniE097" format="2">
  <advance width="1024"/>
  <unicode hex="E097"/>
  <outline>
    <component base="pixel.1" yOffset="-128"/>
    <component base="pixel.2" xOffset="768" yOffset="-128"/>
    <component base="pixel.5"/>
    <component base="pixel.1" xOffset="896"/>
    <component base="pixel.2" yOffset="128"/>
    <component base="pixel.1" xOffset="896" yOffset="128"/>
    <component base="pixel.1" yOffset="256"/>
    <component base="pixel.2" xOffset="384" yOffset="256"/>
    <component base="pixel.1" xOffset="896" yOffset="256"/>
    <component base="pixel.1" yOffset="384"/>
    <component base="pixel.2" xOffset="384" yOffset="384"/>
    <component base="pixel.1" xOffset="896" yOffset="384"/>
    <component base="pixel.1" yOffset="512"/>
    <component base="pixel.2" xOffset="384" yOffset="512"/>
    <component base="pixel.1" xOffset="896" yOffset="512"/>
    <component base="pixel.8" yOffset="640"/>
    <component base="pixel.8" yOffset="768"/>
  </outline>
</glyph>
