<?xml version='1.0' encoding='UTF-8'?>
<glyph name="w" format="2">
  <advance width="1024"/>
  <unicode hex="0077"/>
  <outline>
    <component base="pixel.2" xOffset="256"/>
    <component base="pixel.2" xOffset="640"/>
    <component base="pixel.5" xOffset="256" yOffset="128"/>
    <component base="pixel.7" xOffset="128" yOffset="256"/>
    <component base="pixel.2" xOffset="128" yOffset="384"/>
    <component base="pixel.1" xOffset="512" yOffset="384"/>
    <component base="pixel.2" xOffset="768" yOffset="384"/>
    <component base="pixel.2" xOffset="128" yOffset="512"/>
    <component base="pixel.2" xOffset="768" yOffset="512"/>
  </outline>
  <lib>
    <dict>
      <key>public.markColor</key>
      <string>0.67,0.95,0.38,1</string>
    </dict>
  </lib>
</glyph>
