<?xml version='1.0' encoding='UTF-8'?>
<glyph name="j" format="2">
  <advance width="1024"/>
  <unicode hex="006A"/>
  <outline>
    <component base="pixel.4" xOffset="256" yOffset="-128"/>
    <component base="pixel.2" xOffset="640"/>
    <component base="pixel.2" xOffset="640" yOffset="128"/>
    <component base="pixel.2" xOffset="640" yOffset="256"/>
    <component base="pixel.2" xOffset="640" yOffset="384"/>
    <component base="pixel.2" xOffset="640" yOffset="640"/>
  </outline>
  <lib>
    <dict>
      <key>public.markColor</key>
      <string>0.67,0.95,0.38,1</string>
    </dict>
  </lib>
</glyph>
