<?xml version='1.0' encoding='UTF-8'?>
<glyph name="four" format="2">
  <advance width="512"/>
  <unicode hex="0034"/>
  <outline>
    <component base="pixel.4" xOffset="192"/>
    <component base="pixel.2" xOffset="256" yOffset="128"/>
    <component base="pixel.7" yOffset="256"/>
    <component base="pixel.2" yOffset="384"/>
    <component base="pixel.2" xOffset="256" yOffset="384"/>
    <component base="pixel.2" xOffset="64" yOffset="512"/>
    <component base="pixel.2" xOffset="256" yOffset="512"/>
    <component base="pixel.4" xOffset="128" yOffset="640"/>
    <component base="pixel.3" xOffset="192" yOffset="768"/>
  </outline>
</glyph>
