<?xml version='1.0' encoding='UTF-8'?>
<glyph name="registered" format="2">
  <advance width="512"/>
  <unicode hex="00AE"/>
  <outline>
    <component base="pixel.6" xOffset="64" yOffset="-128"/>
    <component base="pixel.1"/>
    <component base="pixel.1" xOffset="448"/>
    <component base="pixel.1" yOffset="128"/>
    <component base="pixel.1" xOffset="128" yOffset="128"/>
    <component base="pixel.1" xOffset="256" yOffset="128"/>
    <component base="pixel.1" xOffset="448" yOffset="128"/>
    <component base="pixel.1" yOffset="256"/>
    <component base="pixel.2" xOffset="128" yOffset="256"/>
    <component base="pixel.1" xOffset="448" yOffset="256"/>
    <component base="pixel.1" yOffset="384"/>
    <component base="pixel.3" xOffset="128" yOffset="384"/>
    <component base="pixel.1" xOffset="448" yOffset="384"/>
    <component base="pixel.1" yOffset="512"/>
    <component base="pixel.3" xOffset="128" yOffset="512"/>
    <component base="pixel.1" xOffset="448" yOffset="512"/>
    <component base="pixel.1" yOffset="640"/>
    <component base="pixel.1" xOffset="448" yOffset="640"/>
    <component base="pixel.6" xOffset="64" yOffset="768"/>
  </outline>
</glyph>
