<?xml version='1.0' encoding='UTF-8'?>
<glyph name="Omega" format="2">
  <outline>
    <contour>
      <point x="637" y="259" type="line"/>
      <point x="637" y="-3" type="line"/>
      <point x="1027" y="-3" type="line"/>
      <point x="1027" y="131" type="line"/>
      <point x="899" y="131" type="line"/>
      <point x="899" y="253" type="line"/>
      <point x="1027" y="253" type="line"/>
      <point x="1027" y="771" type="line"/>
      <point x="899" y="771" type="line"/>
      <point x="899" y="899" type="line"/>
      <point x="253" y="899" type="line"/>
      <point x="253" y="771" type="line"/>
      <point x="125" y="771" type="line"/>
      <point x="125" y="253" type="line"/>
      <point x="253" y="253" type="line"/>
      <point x="253" y="131" type="line"/>
      <point x="125" y="131" type="line"/>
      <point x="125" y="-3" type="line"/>
      <point x="515" y="-3" type="line"/>
      <point x="515" y="259" type="line"/>
      <point x="387" y="259" type="line"/>
      <point x="387" y="765" type="line"/>
      <point x="765" y="765" type="line"/>
      <point x="765" y="259" type="line"/>
    </contour>
  </outline>
  <lib>
    <dict>
      <key>com.schriftgestaltung.Glyphs.nodeUserData.0.0</key>
      <dict>
        <key>name</key>
        <string>hr00</string>
      </dict>
    </dict>
  </lib>
</glyph>
