<?xml version='1.0' encoding='UTF-8'?>
<glyph name="exclam" format="2">
  <advance width="512"/>
  <unicode hex="0021"/>
  <outline>
    <component base="pixel.2" xOffset="192"/>
    <component base="pixel.2" xOffset="192" yOffset="256"/>
    <component base="pixel.2" xOffset="192" yOffset="384"/>
    <component base="pixel.4" xOffset="128" yOffset="512"/>
    <component base="pixel.4" xOffset="128" yOffset="640"/>
    <component base="pixel.2" xOffset="192" yOffset="768"/>
  </outline>
</glyph>
