<?xml version='1.0' encoding='UTF-8'?>
<glyph name="hyphen" format="2">
  <advance width="512"/>
  <unicode hex="002D"/>
  <outline>
    <component base="pixel.6" xOffset="64" yOffset="384"/>
  </outline>
</glyph>
