<?xml version='1.0' encoding='UTF-8'?>
<glyph name="degree" format="2">
  <outline>
    <contour>
      <point x="125" y="771" type="line"/>
      <point x="125" y="509" type="line"/>
      <point x="253" y="509" type="line"/>
      <point x="253" y="381" type="line"/>
      <point x="643" y="381" type="line"/>
      <point x="643" y="509" type="line"/>
      <point x="771" y="509" type="line"/>
      <point x="771" y="771" type="line"/>
      <point x="643" y="771" type="line"/>
      <point x="643" y="899" type="line"/>
      <point x="253" y="899" type="line"/>
      <point x="253" y="771" type="line"/>
    </contour>
    <contour>
      <point x="509" y="765" type="line"/>
      <point x="509" y="515" type="line"/>
      <point x="387" y="515" type="line"/>
      <point x="387" y="765" type="line"/>
    </contour>
  </outline>
  <lib>
    <dict>
      <key>com.schriftgestaltung.Glyphs.nodeUserData.0.0</key>
      <dict>
        <key>name</key>
        <string>hr00</string>
      </dict>
    </dict>
  </lib>
</glyph>
