<?xml version='1.0' encoding='UTF-8'?>
<glyph name="uniE09B" format="2">
  <advance width="1024"/>
  <unicode hex="E09B"/>
  <outline>
    <component base="pixel.8" yOffset="-128"/>
    <component base="pixel.1"/>
    <component base="pixel.5" xOffset="384"/>
    <component base="pixel.1" yOffset="128"/>
    <component base="pixel.4" xOffset="512" yOffset="128"/>
    <component base="pixel.1" yOffset="256"/>
    <component base="pixel.3" xOffset="640" yOffset="256"/>
    <component base="pixel.1" yOffset="384"/>
    <component base="pixel.1" xOffset="384" yOffset="384"/>
    <component base="pixel.2" xOffset="768" yOffset="384"/>
    <component base="pixel.5" yOffset="512"/>
    <component base="pixel.1" xOffset="896" yOffset="512"/>
    <component base="pixel.6" yOffset="640"/>
    <component base="pixel.7" yOffset="768"/>
  </outline>
</glyph>
